{
    "antifeatures": {
        "Ads": "इस ऐप में विज्ञापन शामिल है",
        "DisabledAlgorithm": "इस ऐप का सुरक्षा हस्ताक्षर कमज़ोर है",
        "KnownVuln": "इस ऐप में एक ज्ञात सुरक्षा की कमज़ोरी है",
        "NSFW": "इस ऐप में ऐसी सामग्री है जिसे हर जगह प्रचारित किया या दिखाया नहीं जाना चाहिए",
        "NoSourceSince": "स्रोत कोड अब उपलब्ध नहीं है, अपडेट करना संभव नहीं",
        "NonFreeAdd": "इस ऐप में गैर-मुफ़्त ऐड-ऑन्स को बढ़ावा दिया गया है",
        "NonFreeAssets": "इस ऐप में गैर-मुक्त ऐसेट्स मौजूद हैं",
        "NonFreeDep": "यह ऐप दूसरे गैर-मुफ़्त ऐप्स पर निर्भर है",
        "NonFreeNet": "यह ऐप किसी गैर-मुफ़्त नेटवर्क सेवा को बढ़ावा देता है या पूरी तरह उसपर निर्भर है",
        "Tracking": "यह ऐप आपकी गतिविधि को ट्रैक करके उसे रिपोर्ट करता है",
        "UpstreamNonFree": "अपस्ट्रीम स्रोत कोड पूरी तरह से मुफ़्त नहीं है"
    },
    "app_categories": {
        "Connectivity": "कनेक्टिविटी",
        "Development": "विकास",
        "Games": "खेल",
        "Graphics": "ग्राफ़िक्स",
        "Internet": "इंटरनेट",
        "Money": "पैसे",
        "Multimedia": "मल्टीमीडिया",
        "Navigation": "नेविगेशन",
        "Phone & SMS": "फ़ोन और SMS",
        "Reading": "पठन",
        "Science & Education": "विज्ञान और शिक्षा",
        "Security": "सुरक्षा",
        "Sports & Health": "खेल-कूद और स्वास्थ्य",
        "System": "सिस्टम",
        "Theming": "थीमिंग",
        "Time": "समय",
        "Writing": "लेखन",
        "show_all_packages": "सभी %d पैकेज दिखाएँ"
    },
    "index": {
        "download_fdroid": "F-Droid डाउनलोड करें",
        "gpg_signature": "PGP हस्ताक्षर",
        "introduction": "F-Droid, Android मंच के लिए FOSS (मुफ़्त और मुक्त स्रोत सॉफ़्टवेयर) का एक स्थापनीय कैटलॉग है। इस क्लाइंट से अपडेट पाना, स्थापित करना, और उनके बारे में जागरूक रहना आसान हो जाता है।",
        "screenshot": "F-Droid के Android ऐप का स्क्रीनशॉट",
        "title": "F-Droid क्या है?"
    },
    "mirrors": {
        "cn": "चीन",
        "de": "जर्मनी",
        "indiana": "इंडियाना, संयुक्त राज्य",
        "se": "स्वीडन",
        "tw": "ताइवान",
        "ua": "यूक्रेन"
    },
    "navigation": {
        "about": "परिचय",
        "apps": "ऐप्स",
        "contribute": "सहयोग",
        "documentation": "प्रलेख",
        "edit_on_gitlab": "GitLab पर सम्पादित करें",
        "forum": "मंच",
        "issues": "मुद्दे",
        "news": "समाचार",
        "translate_on_weblate": "Weblate पर अनुवाद करें"
    },
    "news": {
        "by": "लेखक",
        "newer_posts": "← नए पोस्ट्स",
        "older_posts": "पुराने पोस्ट्स →",
        "posted_on": "{{ post_date }} को पोस्ट किया गया"
    },
    "package": {
        "added_on": "{{ package_added_date }} को जोड़ा गया",
        "anti_features": "विरोधी विशेषताएँ",
        "anti_features_warning": "इस ऐप में ऐसी सुविधाएँ हैं जो शायद आपको पसंद न आए।",
        "author": "लेखक",
        "build_log": "बिल्ड लॉग",
        "build_metadata": "बिल्ड मेटाडेटा",
        "changelog": "बदलाव लॉग",
        "donate": "दान करें",
        "download": "{{file_extension}} डाउनलोड करें",
        "flattr": "Flattr",
        "gpg_signature": "PGP हस्ताक्षर",
        "issue_tracker": "मुद्दा ट्रैकर",
        "liberapay": "Liberapay",
        "license": "लाइसेंस",
        "minimum_android_version": "इस संस्करण के लिए Android {{ android_version }} या अधिक की ज़रूरत है।",
        "new_in_version": "संस्करण {{latest_version}} में नया",
        "opencollective": "ओपन कलेक्टिव",
        "package_icon_alt": "पैकेज आईकॉन",
        "package_screenshot_alt": "ऐप का स्क्रीनशॉट",
        "packages": "पैकेज",
        "permissions": "अनुमतियाँ",
        "signed_by_developer": "इसे मूल विकासक द्वारा बिल्ड और हस्ताक्षरित किया गया है।",
        "signed_by_fdroid": "इसे F-Droid द्वारा बिल्ड और हस्ताक्षरित किया गया है, और यह <a href=\"{{ source_code_url }}\">इस स्रोत tarball</a> से ज़रूर मेल खाएगा।",
        "source_code": "स्रोत कोड",
        "suggest_downloading_via_fdroid": "हालाँकि आपको विकल्प के रूप में APK डाउनलोड्स उपलब्ध हैं, आपको पता होना चाहिए कि इसे इस प्रकार स्थापित करके आपको अपडेट की अधिसूचनाएँ प्राप्त नहीं होंगी और यह डाउनलोड करने का एक कम सुरक्षित साधन है। हमारा सुझाव होगा कि आप F-Droid क्लाइंट को डाउनलोड करके उसका इस्तेमाल करें।",
        "suggested": "सुझावित",
        "translation": "अनुवाद",
        "version_info": "<b>संस्करण {{ package_version }}</b> ({{ package_version_code }})",
        "versions": "संस्करण",
        "website": "वेबसाइट"
    },
    "permissions": {
        "permdesc_acceptHandovers": "ऐप किसी दूसरे ऐप द्वारा किए गए कॉल को जारी रख पाएगा।",
        "permdesc_accessBackgroundLocation": "यह ऐप किसी भी समय आपका स्थान देख पाएगा, चाहे ऐप का इस्तेमाल न किया जा रहा हो।",
        "permdesc_accessCoarseLocation": "जब ऐप चलाया जा रहा हो, तब यह स्थान की जानकारी की सेवाओं से आपका अनुमानित स्थान देख पाएगा। अपने डिवाइस पर स्थान के जानकारी की सेवाओं को चालू करने पर ऐप आपका स्थान देख पाएगा।",
        "permdesc_accessDrmCertificates": "ऐप्लिकेशन DRM प्रमाणपत्रों का प्रावधान और इस्तेमाल कर पाएगा। साधारण ऐप्स को इसकी ज़रूरत नहीं पड़नी चाहिए।",
        "permdesc_accessFineLocation": "जब ऐप चलाया जा रहा हो, तब यह स्थान की जानकारी की सेवाओं से आपका सटीक स्थान देख पाएगा। अपने डिवाइस पर स्थान के जानकारी की सेवाओं को चालू करने पर ऐप आपका स्थान देख पाएगा। इससे बैटरी का उपयोग बढ़ सकता है।",
        "permdesc_accessImsCallService": "आपकी अनुमति के बिना कॉल करने के लिए, ऐप IMS सेवा का इस्तेमाल कर पाएगा।",
        "permdesc_accessLocationExtraCommands": "ऐप कुछ अधिक स्थान-प्रदाता के कमांड्स तक पहुँच पाएगा। इससे ऐप शायद GPS या स्थान के दूसरे स्रोतों के साथ हस्तक्षेप करे।",
        "permdesc_accessNetworkConditions": "ऐप, नेटवर्क की स्थिति का अवलोकन प्राप्त कर पाएगा। साधारण ऐप्स को इसकी ज़रूरत नहीं पड़नी चाहिए।",
        "permdesc_accessNetworkState": "ऐप नेटवर्क कनेक्‍शन के बारे में जानकारी देख पाएगा, जैसे कौन-से नेटवर्क मौजूद हैं और कनेक्‍ट किए गए हैं।",
        "permdesc_accessNotifications": "ऐप सूचना पा, जाँच कर और साफ़ कर पाएगा, जिनमें दूसरे ऐप्स द्वारा पोस्ट की गई अधिसूचनाएँ भी शामिल हैं।",
        "permdesc_accessWifiState": "ऐप Wi-Fi नेटवर्किंग के बारे में जानकारी देख पाएगा, जैसे Wi-Fi सक्षम है कि नहीं, और Wi-Fi डिवाइसों के नाम।",
        "permdesc_accessWimaxState": "ऐप पता कर पाएगा कि WiMAX सक्षम है कि नहीं, और कनेक्ट किए गए किसी भी WiMAX नेटवर्क के बारे में जानकारी प्राप्त कर पाएगा।",
        "permdesc_access_notification_policy": "ऐप \"परेशान न करें\" कॉन्फ़िगरेशन को पढ़ और लिख पाएगा।",
        "permdesc_activityRecognition": "यह ऐप आपकी शारीरिक गतिविधियों का पता कर सकता है।",
        "permdesc_addVoicemail": "ऐप आपके वॉइसमेल इनबॉक्स पर संदेश जोड़ पाएगा।",
        "permdesc_answerPhoneCalls": "ऐप किसी आवक कॉल को उठा पाएगा।",
        "permdesc_audioWrite": "ऐप आपके संगीत संग्रह में बदलाव कर पाएगा।",
        "permdesc_backgroundCamera": "ऐप किसी भी समय कैमरा की मदद से तस्वीरें खींच और वीडियो रिकॉर्ड कर सकता है।",
        "permdesc_bindCarrierMessagingService": "धारक अपने कैरियर मैसेजिंग सेवा के सर्वोपरी इंटरफ़ेस से बाइंड कर पाएगा। साधारण ऐप्स को इसकी ज़रूरत नहीं पड़नी चाहिए।",
        "permdesc_bindCarrierServices": "धारक अपनी कैरियर सेवाओं से बाइंड कर पाएगा। साधारण ऐप्स को इसकी ज़रूरत नहीं पड़नी चाहिए।",
        "permdesc_bindCellBroadcastService": "ऐप, सेल् ब्रॉडकास्ट संदेशों को प्राप्त करके फ़ॉरवर्ड करने के लिए सेल् ब्रॉडकास्ट मॉड्यूल पर बाइंड कर पाएगा। सेल् ब्रॉडकास्ट चेतावनियाँ कुछ जगहों पर आपातकालीन स्थितियों की सूचना देने के लिए दी जाती हैं। किसी आपातकालीन सेल् ब्रॉडकास्ट के पार्पत करने पर दुष्ट ऐप्स आपके डिवाइस के प्रदर्शन को नुकसान पहुँचा सकते हैं।",
        "permdesc_bindConditionProviderService": "धारक अपनी कंडीशन प्रोवाइडर सेवा के सर्वोपरी इंटरफ़ेस से बाइंड कर पाएगा। साधारण ऐप्स को इसकी ज़रूरत नहीं पड़नी चाहिए।",
        "permdesc_bindDreamService": "धारिक किसी Dream Service के सर्वोपरी इंटरफ़ेस से बाइंड कर पाएगा। साधारण ऐप्स को इसकी ज़रूरत नहीं पड़नी चाहिए।",
        "permdesc_bindNotificationListenerService": "धारक किसी अधिसूचना स्रोता सेवा के सर्वोपरी इंटरफ़ेस से बाइंड कर पाएगा। साधारण ऐप्स को इसकी ज़रूरत नहीं पड़नी चाहिए।",
        "permdesc_bind_connection_service": "ऐप कॉल करने/पाने के लिए टेलीफ़ोनी सेवा से बातचीत कर पाएगा।",
        "permdesc_bind_incall_service": "ऐप यह नियंत्रित कर पाएगा कि धारक को इन-कॉल स्क्रीन कैसे दिखेगा।",
        "permdesc_bluetooth": "ऐप फ़ोन पर ब्लूटूथ के कॉन्फ़िगरेशन को देख पाएगा, और पेयर किए गए डिवाइसों के साथ कनेक्शन बना और प्राप्त कर पाएगा।",
        "permdesc_bluetoothAdmin": "ऐप लोकल ब्लूटूथ फ़ोन को कॉन्फ़िगर कर पाएगा, और रिमोट डिवाइसों को खोजकर उनसे पेयर कर पाएगा।",
        "permdesc_bluetooth_advertise": "ऐप पास के ब्लूटूथ डिवाइसों को विज्ञापन दे पाएगा",
        "permdesc_bluetooth_connect": "ऐप पेयर किए गए ब्लूटूथ डिवाइसों से कनेक्ट कर पाएगा",
        "permdesc_bluetooth_scan": "ऐप पास के ब्लूटूथ डिवाइस खोजकर उनसे पेयर कर पाएगा",
        "permdesc_bodySensors": "ऐप आपकी शारीरिक स्‍थिति, जैसे आपकी हृदय की गति पर नज़र रखने वाले सेंसर के डेटा तक पहुँच पाएगा।",
        "permdesc_broadcastSticky": "ऐप स्टिकी ब्रॉडकास्ट्स भेज पाएगा, जो ब्रॉडकास्ट के ख़त्म होने के बाद भी रहते हैं। ज़्यादा इस्तेमाल करने पर ज़्यादा मेमोरी का इस्तेमाल होगा, जिससे और फ़ोन धीमा या अस्थिर हो सकता है।",
        "permdesc_callCompanionApp": "ऐप डिवाइस पर चल रहे कॉल्स देख और नियंत्रित कर पाएगा। इसमें कॉल्स के लिए नंबर्स, और कॉल्स की स्थिति जैसी जानकारी शामिल है।",
        "permdesc_callPhone": "ऐप आपके हस्तक्षेप के बिना फ़ोन नंबरों को कॉल कर पाएगा। इससे अनपेक्षित शुल्क या कॉल्स हो सकते हैं। ध्यान रखें कि इससे ऐप आपातकालीन नंबरों को कॉल नहीं कर पाएगा। दुष्ट ऐप्स शायद आपकी अनुमति के बिना कॉल करके आपके पैसे बर्बाद करे।",
        "permdesc_camera": "यह ऐप, इस्तेमाल किए जाने के दौरान तस्वीरें खींच और वीडियो रिकॉर्ड कर सकता है।",
        "permdesc_cameraOpenCloseListener": "यह ऐप किसी कैमरा डिवाइस के खोले (उस ऐप द्वारा) और बंद किए जाने पर कॉलबैक्स प्राप्त कर सकता है।",
        "permdesc_changeNetworkState": "ऐप नेटवर्क की कनेक्टिविटी बदल पाएगा।",
        "permdesc_changeTetherState": "ऐप, टेदर किए गए नेटवर्क की कनेक्टिविटी की स्थिति को बदल पाएगा।",
        "permdesc_changeWifiMulticastState": "ऐप किसी Wi-Fi नेटवर्क पर सभी डिवाइसों को मल्टीकास्ट पतों की मदद से भेजे गए पैकेट्स प्राप्त कर पाएगा, न कि बस आपके फ़ोन को।",
        "permdesc_changeWifiState": "ऐप Wi-Fi ऐक्सेस पॉइंट्स से कनेक्ट और डिस्कनेक्ट कर पाएगा और Wi-Fi नेटवर्क्स के लिए डिवाइस कॉन्फ़िगरेशन को बदल पाएगा।",
        "permdesc_changeWimaxState": "ऐप WiMAX नेटवर्क्स से फ़ोन को कनेक्ट और डिस्कनेक्ट कर पाएगा।",
        "permdesc_connection_manager": "ऐप टेलीकॉम कनेक्शन्स प्रबंधित कर पाएगा।",
        "permdesc_control_incall_experience": "ऐप एक इन-कॉल सदस्य अनुभव प्रदान कर पाएगा।",
        "permdesc_createNetworkSockets": "ऐप नेटवर्क सॉकेट्स बना पाएगा और अनुकूलित नेटवर्क प्रोटोकॉल्स का इस्तेमाल कर पाएगा। ब्राउज़र और दूसरे ऐप्लिकेशन्स इंटरनेट पर डेटा भेजने के लिए एक साधन प्रदान करते हैं, तो इंटरनेट पर डेटा भेजने के लिए इस अनुमति की ज़रूरत नहीं पड़ती।",
        "permdesc_disableKeyguard": "ऐप की-लॉक, और किसी भी संबद्ध पासवर्ड सुरक्षा को अक्षम कर पाएगा। उदाहरणस्वरूप, कोई फ़ोन कॉल आने पर फ़ोन की-लॉक को अक्षम कर देता है, और कॉल के ख़त्म हो जाने के बाद की-लॉक को दोबारा सक्षम कर देता है।",
        "permdesc_enableCarMode": "ऐप, गाड़ी-मोड को सक्षम कर पाएगा।",
        "permdesc_exemptFromAudioRecordRestrictions": "इस ऐप पर, ऑडियो रिकॉर्ड करने की पाबंदी लागू न करें।",
        "permdesc_expandStatusBar": "ऐप, स्टेटस बार को विस्तृत कर छिपा पाएगा।",
        "permdesc_foregroundService": "ऐप स्क्रीन पर दिखाई जाने वाली सेवाओं का इस्तेमाल कर पाएगा।",
        "permdesc_fullScreenIntent": "ऐप किसी लॉक किए गए डिवाइस पर अधिसूचनाओं को फ़ूल-स्क्रीन में दिखा पाएगा",
        "permdesc_getAccounts": "ऐप फ़ोन पर ज्ञात खातों की सूची प्राप्त कर पाएगा। इसमें आपके द्वारा स्थापित ऐप्लिकेशन्स द्वारा बनाए गए खाते भी शामिल हो सकते हैं।",
        "permdesc_getPackageSize": "ऐप अपना कोड, डेटा, और कैश का आकार प्राप्त कर पाएगा",
        "permdesc_getTasks": "ऐप वर्तमान में और हाल ही में चल रहे टास्क्स के बारे में जानकारी प्राप्त कर पाएगा। इससे ऐप यह जानकारी प्राप्त कर सकता है कि डिवाइस पर किन ऐप्लिकेशन्स का इस्तेमाल किया जाता है।",
        "permdesc_handoverStatus": "ऐप वर्तमान Android Beam ट्रांसफ़र्स के बारे में जानकारी प्राप्त कर पाएगा",
        "permdesc_highSamplingRateSensors": "ऐप 200 Hz से ज़्यादा की गति से सेंसर डेटा का नमूना ले पाएगा",
        "permdesc_imagesWrite": "ऐप आपके चित्र संग्रह को संशोधित कर पाएगा।",
        "permdesc_install_shortcut": "ऐप आपके हस्तक्षेप के बिना होमस्क्रीन पर शॉर्टकट्स जोड़ पाएगा।",
        "permdesc_invokeCarrierSetup": "धारक कैरियर द्वारा प्रदत्त कॉन्फ़िगरेशन ऐप को इन्वोक कर पाएगा। साधारण ऐप्स को इसकी ज़रूरत नहीं पड़नी चाहिए।",
        "permdesc_killBackgroundProcesses": "ऐप दूसरे ऐप्स की बैकग्राउंड प्रणालियाँ ख़त्म कर पाएगा। इससे दूसरे ऐप्स काम करना बंद कर सकते हैं।",
        "permdesc_manageFace": "ऐप, चेहरे के साँचें जोड़ने और हटाने के साधन इन्वोक कर पाएगा।",
        "permdesc_manageFingerprint": "ऐप अंगुलांक साँचें जोड़ने और हटाने के साधन इन्वोक कर सकता है।",
        "permdesc_manageNetworkPolicy": "ऐप नेटवर्क की नीतियाँ प्रबंधित कर और ऐप-विशिष्ट नियम परिभाषित कर पाएगा।",
        "permdesc_manageOngoingCalls": "ऐप आपके डिवाइस पर चल रहे कॉल्स के बारे में जानकारी देख पाएगा और इन कॉल्स को नियंत्रित कर पाएगा।",
        "permdesc_manageOwnCalls": "ऐप कॉलिंग के अनुभव को बेहतर बनाने के लिए कॉल्स को अपनी प्रणाली के अंदर से रूट करवाएगा।",
        "permdesc_manageProfileAndDeviceOwners": "ऐप प्रोफ़ाइल के मालिक और डिवाइस का मालिक सेट कर पाएगा।",
        "permdesc_mediaLocation": "ऐप आपकी मीडिया संग्रह से स्थान पढ़ पाएगा।",
        "permdesc_modifyAudioSettings": "ऐप ग्लोबल ऑडियो सेटिंग्स, जैसे वॉल्यूम, और आउटपुट के लिए उपयुक्त स्पीकर, को बदल पाएगा।",
        "permdesc_modifyNetworkAccounting": "ऐप यह संशोधित कर पाएगा कि नेटवर्क के उपयोग को ऐप्स के ख़ातिर कैसे अकाउंट किया जाता है। साधारण ऐप्स के उपयोग के लिए नहीं।",
        "permdesc_nfc": "ऐप नियर फ़ील्ड कम्यूनिकेशन (NFC) टैग, कार्ड्स, और रीडर्स से संपर्क कर पाएगा।",
        "permdesc_persistentActivity": "ऐप, मेमोरी में अपने आपको स्थायी बना पाएगा। इससे दूसरे ऐप्स को कम मेमोरी उपलब्ध होगी, और फ़ोन धीमा हो सकता है।",
        "permdesc_preferredPaymentInfo": "ऐप प्राथमिक NFC भुगतान सेवा की जानकारी प्राप्त कर पाएगा जैसे पंजीकृत सहायता और रूट का लक्ष्य।",
        "permdesc_processOutgoingCalls": "ऐप किसी जावक कॉल के दौरान डायल किए जाने वाले नंबर को पढ़कर कॉल को किसी दूसरे नंबर पर अनुप्रेषित कर पाएगा या कॉल को रद्द भी कर पाएगा।",
        "permdesc_queryAllPackages": "ऐप सभी स्थापित पैकेजेस देख पाएगा।",
        "permdesc_readCalendar": "ऐप आपको फ़ोन पर रखे सभी पंचांग कार्यक्रम पढ़ पाएगा और आपके पंचांग का डेटा बाँट या सहेज पाएगा।",
        "permdesc_readCallLog": "ऐप आपके कॉल का इतिहास पढ़ पाएगा।",
        "permdesc_readCellBroadcasts": "ऐप आपके डिवाइस द्वारा प्राप्त सेल् ब्रॉडकास्ट संदेश पढ़ पाएगा। सेल् ब्रॉडकास्ट चेतावनियाँ कुछ जगहों पर आपातकालीन स्थितियों की सूचना देने के लिए दी जाती हैं। किसी आपातकालीन सेल् ब्रॉडकास्ट के पार्पत करने पर दुष्ट ऐप्स आपके डिवाइस के प्रदर्शन को नुकसान पहुँचा सकते हैं।",
        "permdesc_readContacts": "ऐप आपके फ़ोन पर सभी संपर्कों का डेटा पढ़ पाएगा। ऐप को उन खातों तक भी पहुँच होगी जिन्होंने संपर्क बनाए हैं। इसमें आपके द्वारा स्थापित ऐप्स शामिल हो सकते हैं। इस अनुमति से ऐप्स आपके संपर्क का डेटा सहेज सकते हैं, और दुष्ट ऐप्स आपके जाने बिना आपका डेटा बाँट सकते हैं।",
        "permdesc_readHistoryBookmarks": "ऐप, ब्राउज़र द्वारा पढ़े गए सभी URL-ओं का इतिहास देख सकता है, और साथ में ब्राउज़र के सभी बुकमार्क्स। नोट: यह अनुमति तृतीय-पक्ष ब्राउज़रों या वेब ब्राउज़ करने की क्षमता रखने वाले दूसरे ऐप्स के लिए लागू न भी हो सकती है।",
        "permdesc_readInstallSessions": "ऐप स्थापना सत्र पढ़ पाएगा। इससे यह सक्रिय पैकेज स्थापनाओं की जानकारी देख पाएगा।",
        "permdesc_readNetworkUsageHistory": "ऐप विशिष्ट नेटवर्क्स और ऐप्स के लिए ऐतिहासिक नेटवर्क उपयोग देख पाएगा।",
        "permdesc_readPhoneNumbers": "ऐप डिवाइस पर फ़ोन नंबर्स तक पहुँच पाएगा।",
        "permdesc_readPhoneState": "ऐप डिवाइस की फ़ोन सुविधाओं तक पहुँच पाएगा। इस अनुमति से ऐप फ़ोन नंबर और डिवाइस ID, किसी भी सक्रिय कॉल, और कॉल द्वारा जोड़े गए नंबर का पता कर पाएगा।",
        "permdesc_readSms": "ऐप आपके फ़ोन पर रखे सभी SMS (टेक्स्ट) संदेश पढ़ पाएगा।",
        "permdesc_readSyncSettings": "ऐप किसी खाते के लिए सिंक सेटिंग्स पढ़ पाएगा। उदाहरणस्वरूप, यह पता कर पाएगा कि People ऐप को किसी खाते के साथ सिंक किया गया है कि नहीं।",
        "permdesc_readSyncStats": "ऐप किसी खाते के लिए सिंक की सांख्यिकी पढ़ पाएगा, जैसे सिंक कार्यों का इतिहास और किस डेटा को सिंक किया जाता है।",
        "permdesc_receiveBootCompleted": "सिस्टम के बूट कर लेने के तुरंत बाद ऐप अपने आपको शुरू कर पाएगा। इससे फ़ोन को स्टार्ट होने में समय लग सकता है और हमेशा चलते रहने पर फ़ोन भी धीमा हो सकता है।",
        "permdesc_receiveMms": "ऐप MMS संदेश प्राप्त और प्रोसेस कर पाएगा। इसका मतलब है ऐप आपको दिखाए बिना आपके डिवाइस पर भेजे गए संदेश पढ़ या हटा सकता है।",
        "permdesc_receiveSms": "ऐप SMS संदेश प्राप्त और प्रोसेस कर पाएगा। इसका मतलब है ऐप आपको दिखाए बिना आपके डिवाइस पर भेजे गए संदेश पढ़ या हटा सकता है।",
        "permdesc_receiveWapPush": "ऐप WAP संदेश प्राप्त और प्रोसेस कर पाएगा। इस अनुमति में आपको दिखाए बिना आपको भेजे गए संदेश पढ़ने या हटाने की क्षमता शामिल है।",
        "permdesc_recordAudio": "यह ऐप इस्तेमाल किए जाने के दौरान माइक्रोफ़ोन की मदद से ऑडियो रिकॉर्ड कर सकता है।",
        "permdesc_recordBackgroundAudio": "यह ऐप किसी भी समय माइक्रोफ़ोन की मदद से ऑडियो रिकॉर्ड कर सकता है।",
        "permdesc_register_call_provider": "ऐप नए टेलीकॉम कनेक्शन्स पंजीकृत कर पाएगा।",
        "permdesc_register_sim_subscription": "ऐप नए टेलीकॉम SIM कनेक्शन्स पंजीकृत कर पाएगा।",
        "permdesc_removeDrmCertificates": "ऐप DRM प्रमाणपत्र हटा पाएगा। साधारण ऐप्स को इसकी ज़रूरत नहीं पड़नी चाहिए।",
        "permdesc_reorderTasks": "ऐप टास्क्स को स्क्रीन के ऊपर से बैकग्राउंड में ले जा पाएगा। ऐप ऐसा आपकी इनपुट के बिना भी कर सकता है।",
        "permdesc_requestDeletePackages": "ऐप पैकेज हटाने का अनुरोध कर पाएगा।",
        "permdesc_requestIgnoreBatteryOptimizations": "ऐप उस ऐप के लिए बैटरी ऑप्टिमाइज़ेशन को अनदेखा करने की अनुमति माँग पाएगा।",
        "permdesc_requestInstallPackages": "ऐप पैकेज स्थापित करने का अनुरोध कर पाएगा।",
        "permdesc_requestPasswordComplexity": "ऐप स्क्रीन लॉक के जटिलता का स्तर (उच्च, मध्यम, निम्न, या कोई नहीं) जान पाएगा, जिससे स्क्रीन लॉक की लंबाई और प्रकार के रेंज का पता लग सकता है। यह ऐप सदस्य से स्क्रीन लॉक किसी विशिष्ट स्तर पर लाने को कह सकता है मगर सदस्य इसे अनदेखा कर सकता है। ध्यान रखें कि स्क्रीनलॉक को सादे टेक्स्ट में नहीं रखा जाता है, तो ऐप को सटीक पासवर्ड पता नहीं होगा।",
        "permdesc_route_media_output": "ऐप मीडिया आउटपुट को बाहरी डिवाइसों पर रूट कर पाएगा।",
        "permdesc_runInBackground": "ऐप बैकग्राउंड में चल पाएगा। इससे बैटरी पर बोझ पड़ सकता है।",
        "permdesc_sdcardRead": "ऐप आपके साँझित संग्रह की सामग्री पढ़ पाएगा।",
        "permdesc_sdcardWrite": "ऐप आपके साँझित संग्रह की सामग्री को लिख पाएगा।",
        "permdesc_sendSms": "ऐप SMS संदेश भेज पाएगा। इससे अनपेक्षित शुल्क लग सकते हैं। दुष्ट ऐप्स शायद आपकी अनुमति के बिना कॉल करके आपके पैसे बर्बाद करे।",
        "permdesc_setAlarm": "ऐप किसी स्थापित अलार्म घड़ी ऐप में अलार्म सेट कर पाएगा। कुछ अलार्म घड़ी ऐप्स शायद इस सुविधा को लागू न करे।",
        "permdesc_setInputCalibration": "ऐप टच-स्क्रीन के कैलिब्रेशन पैरामीटर्स को संशोधित कर पाएगा। साधारण ऐप्स को इसकी ज़रूरत नहीं पड़नी चाहिए।",
        "permdesc_setTimeZone": "ऐप फ़ोन का समय-मंडल बदल पाएगा।",
        "permdesc_setWallpaper": "ऐप, सिस्टम वॉलपेपर बदल पाएगा।",
        "permdesc_setWallpaperHints": "ऐप, सिस्टम वॉलपेपर के आकार संकेत सेट कर पाएगा।",
        "permdesc_sim_communication": "ऐप SIM को कमांड्स भेज पाएगा। यह काफ़ी ख़तरनाक हो सकता है।",
        "permdesc_startViewPermissionUsage": "धारक किसी ऐप के लिए अनुमति का उपयोग शुरू कर पाएगा। साधारण ऐप्स को इसकी ज़रूरत नहीं पड़नी चाहिए।",
        "permdesc_statusBar": "ऐप स्टेटस बार अक्षम कर पाएगा और सिस्टम आईकॉन्स जोड़ या हटा पाएगा।",
        "permdesc_statusBarService": "ऐप स्टेटस बार बन पाएगा।",
        "permdesc_subscribedFeedsRead": "ऐप वर्तमान में सिंक किए गए फ़ीड्स के बारे में जानकारी प्राप्त कर पाएगा।",
        "permdesc_systemAlertWindow": "यह ऐप दूसरे ऐप्स के ऊपर या स्क्रीन के दूसरे हिस्सों में दिख सकता है। इससे ऐप्स के साधारण उपयोग में रुकावट आ सकती है और दूसरे ऐप्स की दिखावट पर प्रभाव पड़ सकता है।",
        "permdesc_systemCamera": "इस अनुमति वाले ऐप्स किसी भी समय सिस्टम कैमरा की मदद से तस्वीरें खींच और वीडियो रिकॉर्ड कर सकते हैं। ऐप को android.permission.CAMERA अनुमति की भी ज़रूरत होगी",
        "permdesc_transmitIr": "ऐप फ़ोन के इंफ़्रारेड ट्रांसमिटर का इस्तेमाल कर पाएगा।",
        "permdesc_uninstall_shortcut": "ऐप आपके हस्तक्षेप के बिना होमस्क्रीन से शॉर्टकट्स हटा पाएगा।",
        "permdesc_useBiometric": "ऐप प्रमाणीकरण के लिए बायोमेट्रिक हार्डवेयर का इस्तेमाल कर पाएगा",
        "permdesc_useDataInBackground": "यह ऐप बैकग्राउंड में डेटा का इस्तेमाल कर सकता है। इससे डेटा का उपयोग बढ़ सकता है।",
        "permdesc_useFaceAuthentication": "ऐप प्रमाणीकरण के लिए फ़ेस अनलॉक हार्डवेयर का इस्तेमाल कर पाएगा",
        "permdesc_useFingerprint": "ऐप प्रमाणीकरण के लिए अंगुलांक हार्डवेयर का इस्तेमाल कर पाएगा",
        "permdesc_use_sip": "ऐप SIP कॉल्स कर और प्राप्त कर पाएगा।",
        "permdesc_uwb_ranging": "ऐप अल्ट्रा-वाइडबैंड डिवाइसों के बीच के अनुमानित स्थान का पता लगा पाएगा",
        "permdesc_vibrate": "ऐप वाइब्रेटर को नियंत्रित कर पाएगा।",
        "permdesc_vibrator_state": "ऐप वाइब्रेटर की स्थिति तक पहुँच पाएगा।",
        "permdesc_videoWrite": "ऐप आपके वीडियो संग्रह को संशोधित कर पाएगा।",
        "permdesc_wakeLock": "ऐप फ़ोन को सोने से रोक पाएगा।",
        "permdesc_writeCalendar": "यह ऐप आपके फ़ोन पर पंचांग के कार्यक्रम जोड़, हटा, यह बदल सकता है। यह ऐप पंचांग के मालिकों की ओर से संदेश भेज सकता है, या मालिकों को बताए बिना कार्यक्रम बदल सकता है।",
        "permdesc_writeCallLog": "ऐप आवक और जावक कॉल्स के बारे में डेटा सहित आपके फ़ोन का कॉल लॉग संशोधित कर सकता है। दुष्ट ऐप्स इसकी मदद से आपका कॉल लॉग हटा या बदल सकते हैं।",
        "permdesc_writeContacts": "ऐप आपके फ़ोन पर आपके संपर्कों के बारे में रखे डेटा को संशोधित कर सकता है। इस अनुमति से ऐप्स संपर्क का डेटा हटा भी सकते हैं।",
        "permdesc_writeGeolocationPermissions": "ऐप ब्राउज़र की स्थान से जुड़ी अनुमतियों को बदल पाएगा। दुष्ट ऐप्स इससे गलत वेबसाइटों पर स्थान की जानकारी भेज सकते हैं।",
        "permdesc_writeHistoryBookmarks": "ऐप आपके फ़ोन पर रखे ब्राउज़र के इतिहास और बुकमार्क्स को पढ़ पाएगा। इससे ऐप ब्राउज़र के डेटा को हटा या संशोधित कर पाएगा। नोट: यह अनुमति तृतीय-पक्ष ब्राउज़रों या वेब ब्राउज़ करने की क्षमता रखने वाले दूसरे ऐप्स के लिए लागू न भी हो सकती है।",
        "permdesc_writeSettings": "ऐप सिस्टम सेटिंग के डेटा को संशोधित कर पाएगा। दुष्ट ऐप्स इससे आपके सिस्टम का कॉन्फ़िगरेशन भ्रष्ट कर सकते हैं।",
        "permdesc_writeSyncSettings": "ऐप किसी खाते के लिए सिंक सेटिंग्स संशोधित कर पाएगा। उदाहरणस्वरूप, इससे People ऐप का सिंक किसी खाते के साथ सक्षम किया जा सकता है।",
        "permgroupbackgroundrequest_location": "ऐप बैकग्राउंड में स्थान का अनुरोध कर पाएगा।",
        "permgroupbackgroundrequestdetail_location": "ऐप इस समय सिर्फ इस्तेमाल किए जाने के दौरान स्थान तक पहुँच पाता है",
        "permgroupdesc_activityRecognition": "शारीरिक गतिविधि की जानकारी पाना",
        "permgroupdesc_calendar": "आपके पंचांग तक पहुँचना",
        "permgroupdesc_calllog": "कॉल लॉग की जानकारी देखना और उसमें लिखना",
        "permgroupdesc_camera": "तस्वीरें खींचना और वीडियो रिकॉर्ड करना",
        "permgroupdesc_contacts": "आपके संपर्कों तक पहुँचना",
        "permgroupdesc_location": "इस डिवाइस के स्थान की जानकारी प्राप्त करना",
        "permgroupdesc_microphone": "ऑडियो रिकॉर्ड करना",
        "permgroupdesc_nearby_devices": "आस-पास मौजूद डिवाइस खोजना और उनसे कनेक्ट करना",
        "permgroupdesc_phone": "फ़ोन कॉल करना और प्रबंधित करना",
        "permgroupdesc_sensors": "अपने महत्वपूर्ण संकेतों के बारे में सेंसर डेटा तक पहुँचना",
        "permgroupdesc_sms": "SMS संदेश भेजना और देखना",
        "permgroupdesc_storage": "आपके डिवाइस की तस्वीरों, वीडियों, और फ़ाइलों तक पहुँचना",
        "permgrouplab_activityRecognition": "शारीरिक गतिविधि",
        "permgrouplab_calendar": "पंचांग",
        "permgrouplab_calllog": "कॉल लॉग",
        "permgrouplab_camera": "कैमरा",
        "permgrouplab_contacts": "संपर्क",
        "permgrouplab_location": "स्थान",
        "permgrouplab_microphone": "माइक्रोफ़ोन",
        "permgrouplab_nearby_devices": "आस-पास मौजूद डिवाइस",
        "permgrouplab_phone": "फ़ोन",
        "permgrouplab_sensors": "बॉडी सेंसर्स",
        "permgrouplab_sms": "SMS",
        "permgrouplab_storage": "फ़ाइलें और मीडिया",
        "permgrouprequest_activityRecognition": "ऐप को अपनी गतिविधि को ट्रैक करने की अनुमति दें।",
        "permgrouprequest_calendar": "अनुमति दें <b></b>",
        "permgrouprequest_calllog": "अनुमति दें <b></b>",
        "permgrouprequest_camera": "अनुमति दें <b></b>",
        "permgrouprequest_contacts": "अनुमति दें <b></b>",
        "permgrouprequest_location": "अनुमति दें <b></b>",
        "permgrouprequest_microphone": "अनुमति दें <b></b>",
        "permgrouprequest_phone": "अनुमति दें <b></b>",
        "permgrouprequest_sensors": "अनुमति दें <b></b>",
        "permgrouprequest_sms": "अनुमति दें <b></b>",
        "permgrouprequest_storage": "अनुमति दें <b></b>",
        "permgrouprequestdetail_location": "यह ऐप सिर्फ इस्तेमाल किए जाने के दौरान स्थान का पता लगा पाएगा",
        "permission_request_notification_for_app_with_subtitle": "अनुमति का अनुरोधक है",
        "permlab_acceptHandover": "किसी दूसरे ऐप द्वारा किए गए कॉल को जारी रखना",
        "permlab_accessBackgroundLocation": "बैकग्राउंड में स्थान की जानकारी प्राप्त करना",
        "permlab_accessCoarseLocation": "सिर्फ फ़ोरग्राउंड में अनुमानित स्थान की जानकारी प्राप्त करना",
        "permlab_accessDrmCertificates": "DRM प्रमाणपत्र ऐक्सेस करना",
        "permlab_accessFineLocation": "सिर्फ फ़ोरग्राउंड में सटीक स्थान की जानकारी प्राप्त करना",
        "permlab_accessImsCallService": "IMS कॉल सेवा ऐक्‍सेस करना",
        "permlab_accessLocationExtraCommands": "कुछ अधिक स्थान-प्रदाता के कमांड्स तक पहुँचना",
        "permlab_accessNetworkConditions": "नेटवर्क की स्थिति का अवलोकन प्राप्त करना",
        "permlab_accessNetworkState": "नेटवर्क कनेक्‍शन्स देखना",
        "permlab_accessNotifications": "अधिसूचनाओं तक पहुँचना",
        "permlab_accessWifiState": "Wi-Fi कनेक्शन्स देखना",
        "permlab_accessWimaxState": "WiMAX से कनेक्ट और डिसकनेक्ट करना",
        "permlab_access_notification_policy": "'परेशान न करें' सक्षम करना",
        "permlab_activityRecognition": "शरीर की गतिविधि को पहचानना",
        "permlab_addVoicemail": "वॉइसमेल जोड़ना",
        "permlab_answerPhoneCalls": "फ़ोन कॉल का जवाब देना",
        "permlab_audioWrite": "आपके संगीत संग्रह को संशोधित करना",
        "permlab_backgroundCamera": "बैकग्राउंड में तस्वीरें और वीडियो खींचना",
        "permlab_bindCarrierMessagingService": "कैरियर मौसेजिंग सेवा से बाइंड करना",
        "permlab_bindCarrierServices": "कैरियर सेवाओं से बाइंड करना",
        "permlab_bindCellBroadcastService": "सेल् ब्रॉडकास्ट संदेश फ़ॉरवर्ड करना",
        "permlab_bindConditionProviderService": "किसी कंडीशन प्रोवाइडर से बाइंड करना",
        "permlab_bindDreamService": "एक Dream Service से बाइंड करना",
        "permlab_bindNotificationListenerService": "अधिसूचना स्रोता सेवा से बाइंड करना",
        "permlab_bind_connection_service": "टेलीफ़ोनी सेवाओं के साथ बातचीत करना",
        "permlab_bind_incall_service": "इन-कॉल स्क्रीन से बातचीत करना",
        "permlab_bluetooth": "दूसरे ब्लूटूथ डिवाइसों के साथ पेयर करना",
        "permlab_bluetoothAdmin": "ब्लूटूथ सेटिंग्स तक पहुँचना",
        "permlab_bluetooth_advertise": "आस-पास मौजूद ब्लूटूथ डिवाइसों पर विज्ञापन दिखाना",
        "permlab_bluetooth_connect": "पेयर किए गए ब्लूटूथ डिवाइसों से कनेक्ट करना",
        "permlab_bluetooth_scan": "आस-पास मौजूद ब्लूटूथ डिवाइस खोजना और उनसे कनेक्ट करना",
        "permlab_bodySensors": "बॉडी सेंसर्स (जैसे हृदय गति मॉनीटर) तक पहुँचना",
        "permlab_broadcastSticky": "स्टिकी ब्रॉडकास्ट भेजना",
        "permlab_callCompanionApp": "सिस्टम के ज़रिए कॉल्स देखना और नियंत्रित करना।",
        "permlab_callPhone": "फ़ोन नंबर पर सीधे कॉल करना",
        "permlab_camera": "चित्र और वीडियो खींचना",
        "permlab_cameraOpenCloseListener": "कैमरा डिवाइसों के खोले और बंद किए जाने पर कॉलबैक्स प्राप्त करने की अनुमति दें।",
        "permlab_changeNetworkState": "नेटवर्क कनेक्‍टिविटी बदलना",
        "permlab_changeTetherState": "टेदर की गई कनेक्‍टिविटी बदलना",
        "permlab_changeWifiMulticastState": "Wi-Fi मल्‍टीकास्‍ट प्राप्त करने की अनुमति दें",
        "permlab_changeWifiState": "Wi-Fi से कनेक्‍ट और डिस्‍कनेक्‍ट करना",
        "permlab_changeWimaxState": "WiMAX स्‍थिति बदलना",
        "permlab_connection_manager": "टेलीकॉम कनेक्शन प्रबंधित करना",
        "permlab_control_incall_experience": "एक इन-कॉल सदस्य अनुभव प्रदान करना",
        "permlab_createNetworkSockets": "नेटवर्क को पूरी तरह इस्तेमाल करना",
        "permlab_disableKeyguard": "आपका स्‍क्रीन लॉक अक्षम करना",
        "permlab_enableCarMode": "कार मोड चालू करना",
        "permlab_exemptFromAudioRecordRestrictions": "ऑडियो रिकॉर्ड करने की पाबंदी से छूट प्राप्त",
        "permlab_expandStatusBar": "स्टेटस बार विस्तृत/छोटा करना",
        "permlab_foregroundService": "फ़ोरग्राउंड सेवा चलाना",
        "permlab_fullScreenIntent": "लॉक किए हुए डिवाइस पर अधिसूचनाओं को फ़ुल-स्क्रीन में दिखाना",
        "permlab_getAccounts": "डिवाइस पर खाते ढूँढ़ना",
        "permlab_getPackageSize": "ऐप संग्रह में जगह नापना",
        "permlab_getTasks": "चल रहे ऐप्स प्राप्त करना",
        "permlab_handoverStatus": "Android Beam ट्रांसफ़र की स्थिति पाना",
        "permlab_highSamplingRateSensors": "नमूने की उच्च गति से सेंसर डेटा प्राप्त करना",
        "permlab_imagesWrite": "आपका चित्र संग्रह संशोधित करना",
        "permlab_install_shortcut": "शॉर्टकट्स स्थापित करना",
        "permlab_invokeCarrierSetup": "कैरियर द्वारा प्रदत्त कॉन्फ़िगरेशन ऐप चलाना",
        "permlab_killBackgroundProcesses": "दूसरे ऐप्स बंद करना",
        "permlab_manageFace": "फ़ेस अनलॉक हार्डवेयर प्रबंधित करना",
        "permlab_manageFingerprint": "अंगुलांक हार्डवेयर प्रबंधित करना",
        "permlab_manageNetworkPolicy": "नेटवर्क नीति प्रबंधित करना",
        "permlab_manageOngoingCalls": "चल रहे कॉल्स प्रबंधित करना",
        "permlab_manageOwnCalls": "सिस्टम के माध्यम से कॉल रूट करना",
        "permlab_manageProfileAndDeviceOwners": "प्रोफ़ाइल और डिवाइस के मालिक प्रबंधित करना",
        "permlab_mediaLocation": "आपके मीडिया संग्रह से स्थान पढ़ना",
        "permlab_modifyAudioSettings": "आपकी ऑडियो सेटिंग्स बदलना",
        "permlab_modifyNetworkAccounting": "नेटवर्क के उपयोग की अकाउंटिंग बदलना",
        "permlab_nfc": "नियर फ़ील्‍ड कम्‍यूनिकेशन नियंत्रित करना",
        "permlab_persistentActivity": "ऐप्स को हमेशा चलाना",
        "permlab_preferredPaymentInfo": "प्राथमिक NFC भुगतान सेवा की जानकारी",
        "permlab_processOutgoingCalls": "जावक कॉल्स को रीरूट करना",
        "permlab_queryAllPackages": "सभी पैकेजेस क्वेरी करना",
        "permlab_readCalendar": "पंचांग पर कार्यक्रम और विस्तार पढ़ना",
        "permlab_readCallLog": "कॉल लॉग पढ़ना",
        "permlab_readCellBroadcasts": "सेल् ब्रॉडकास्ट संदेश पढ़ना",
        "permlab_readContacts": "आपके संपर्क पढ़ना",
        "permlab_readHistoryBookmarks": "आपके वेब बुकमार्क्स और इतिहास पढ़ना",
        "permlab_readInstallSessions": "स्थापना सत्र पढ़ना",
        "permlab_readNetworkUsageHistory": "ऐतिहासिक नेटवर्क उपयोग पढ़ना",
        "permlab_readPhoneNumbers": "फ़ोन नंबर्स पढ़ना",
        "permlab_readPhoneState": "फ़ोन की स्‍थिति और पहचान पढ़ना",
        "permlab_readSms": "आपके टेक्स्ट संदेश (SMS या MMS) पढ़ना",
        "permlab_readSyncSettings": "सिंक सेटिंग्स पढ़ना",
        "permlab_readSyncStats": "सिंक सांख्यिकी पढ़ना",
        "permlab_receiveBootCompleted": "स्टार्टअप पर चलना",
        "permlab_receiveMms": "टेक्स्ट संदेश (MMS) प्राप्त करना",
        "permlab_receiveSms": "टेक्स्ट संदेश (SMS) प्राप्त करना",
        "permlab_receiveWapPush": "टेक्स्ट संदेश (WAP) प्राप्त करना",
        "permlab_recordAudio": "ऑडियो रिकॉर्ड करना",
        "permlab_recordBackgroundAudio": "बैकग्राउंड में ऑडियो रिकॉर्ड करना",
        "permlab_register_call_provider": "नए टेलीकॉम कनेक्‍शन्स पंजीकृत करना",
        "permlab_register_sim_subscription": "नए टेलीकॉम SIM कनेक्‍शन्स पंजीकृत करना",
        "permlab_removeDrmCertificates": "DRM प्रमाणपत्र हटाना",
        "permlab_reorderTasks": "चले रहे ऐप्स का क्रम बदलना",
        "permlab_requestDeletePackages": "पैकेजेस हटाने का अनुरोध करना",
        "permlab_requestIgnoreBatteryOptimizations": "बैटरी ऑप्टिमाइज़ेशन को अनदेखा करने का अनुरोध करना",
        "permlab_requestInstallPackages": "पैकेजेस स्थापित करने का अनुरोध करना",
        "permlab_requestPasswordComplexity": "स्क्रीन लॉक की जटिलता जानने का अनुरोध करना",
        "permlab_route_media_output": "मीडिया आउटपुट को रूट करना",
        "permlab_runInBackground": "बैकग्राउंड में चलना",
        "permlab_sdcardRead": "आपके साँझित संग्रह की सामग्री पढ़ना",
        "permlab_sdcardWrite": "आपके साँझित संग्रह की सामग्री बदलना या हटाना",
        "permlab_sendSms": "SMS संदेश भेजना और देखना",
        "permlab_setAlarm": "अलार्म सेट करना",
        "permlab_setInputCalibration": "इनपुट डिवाइस कैलिब्रेशन बदलना",
        "permlab_setTimeZone": "समय-मंडल सेट करना",
        "permlab_setWallpaper": "वॉलपेपर सेट करना",
        "permlab_setWallpaperHints": "आपके वॉलपेपर का आकार बदलना",
        "permlab_sim_communication": "SIM को कमांड्स भेजना",
        "permlab_startViewPermissionUsage": "अनुमतियों का उपयोग देखना",
        "permlab_statusBar": "स्टेटस बार को अक्षम करना या बदलना",
        "permlab_statusBarService": "स्टेटस बार बनना",
        "permlab_subscribedFeedsRead": "सदस्यता वाली फ़ीड्स पढ़ना",
        "permlab_systemAlertWindow": "यह ऐप दूसरे ऐप्स के ऊपर दिखाई दे सकता है",
        "permlab_systemCamera": "किसी ऐप या सेवा पहुँच को चित्र और वीडियो खींचने के लिए सिस्टम कैमरे का इस्तेमाल करने की अनुमति दें",
        "permlab_transmitIr": "इंफ़्रारेड ट्रांसमिट करना",
        "permlab_uninstall_shortcut": "शॉर्टकट अस्थापित करना",
        "permlab_useBiometric": "बायोमीट्रिक हार्डवेयर का इस्तेमाल करना",
        "permlab_useDataInBackground": "बैकग्राउंड में डेटा का उपयोग करना",
        "permlab_useFaceAuthentication": "फ़ेस अनलॉक हार्डवेयर का इस्तेमाल करना",
        "permlab_useFingerprint": "अंगुलांक हार्डवेयर का इस्तेमाल करना",
        "permlab_use_sip": "SIP कॉल करना/पाना",
        "permlab_uwb_ranging": "आस-पास के अल्ट्रा-वाइडबैंड डिवाइसों के बीच अनुमानित स्थान का पता लगाना",
        "permlab_vibrate": "वाइब्रेशन नियंत्रित करना",
        "permlab_videoWrite": "आपका वीडियो संग्रह संशोधित करना",
        "permlab_wakeLock": "फ़ोन को सोने से रोकना",
        "permlab_writeCalendar": "आपकी जानकारी के बि‍ना पंचांग में कार्यक्रम जोड़ना या संशोधित करना, और अतिथियों को ईमेल भेजना",
        "permlab_writeCallLog": "कॉल लॉग लिखना",
        "permlab_writeContacts": "आपके संपर्क संशोधित करना",
        "permlab_writeGeolocationPermissions": "ब्राउज़र की, स्थान से जुड़ी अनुमतियों को बदलना",
        "permlab_writeHistoryBookmarks": "वेब बुकमार्क्स और इतिहास लिखना",
        "permlab_writeSettings": "सिस्‍टम सेटिंग्स बदलना",
        "permlab_writeSyncSettings": "सिंक को चालू या बंद पर टॉगल करना"
    },
    "sidebars": {
        "donate": {
            "bank_transfer_name": "नाम",
            "bitcoin_alt": "बिटकॉइन के माध्यम से दान करें",
            "credit_card": "क्रेडिट कार्ड",
            "crypto": "क्रिप्टो",
            "currency": "मुद्रा",
            "flattr_alt": "Flattr के माध्यम से दान करें",
            "heading": "दान करें",
            "hellotux": "👕 टी-शर्ट्स 👕 के लिए",
            "hellotux_alt": "HELLOTUX",
            "hellotux_donation": "हर बिके टी-शर्ट के लिए F-Droid को 3€ मिलेंगे।",
            "liberapay_alt": "Liberapay के माध्यम से दान करें",
            "litecoin_alt": "Litecoin के माध्यम से दान करें",
            "more_options": "अधिक विकल्प",
            "opencollective_alt": "हमारे कलेक्टिव को दान करें",
            "paypal": "PayPal",
            "paypal_alt": "PayPal के माध्यम से दान करें",
            "powered_by_donations": "F-Droid आपके दान से संचालित है!",
            "via_bank_transfer": "बैंक ट्रांसफर"
        },
        "lang": {
            "change": "बदलें"
        },
        "last_updated": {
            "heading": "आखिरी अपडेट"
        },
        "latest_packages": {
            "heading": "नवीनतम ऐप्स"
        },
        "news": {
            "heading": "समाचार"
        },
        "search": {
            "heading": "ऐप्स ढूँढ़ें",
            "noscript": "जावास्क्रिप्ट को सक्षम होना होगा",
            "search": "खोजें"
        }
    }
}
