{
    "antifeatures": {
        "Ads": "Šioje programėlėje yra reklamų",
        "DisabledAlgorithm": "Ši programėlė turi silpną saugumo parašą",
        "KnownVuln": "Šioje programėlėje yra žinomas saugumo pažeidžiamumas",
        "NSFW": "Šioje programėlėje yra turinio, kuris neturėtų būti viešinamas ar visur matomas",
        "NoSourceSince": "Pirminis kodas nebėra prieinamas, atnaujinimai negalimi",
        "NonFreeAdd": "Ši programėlė skatina ne laisvus papildinius",
        "NonFreeAssets": "Šioje programėlėje yra ne laisvų resursų",
        "NonFreeDep": "Ši programėlė priklauso nuo kitų ne laisvų programėlių",
        "NonFreeNet": "Ši programėle visiškai priklausoma nuo ne laisvos tinklo paslaugos arba ją propaguoja",
        "Tracking": "Ši programėlė seka ir praneša apie jūsų veiklą",
        "UpstreamNonFree": "Pradinis pirminis kodas nėra visiškai laisvas"
    },
    "app_categories": {
        "Connectivity": "Ryšiai ir tinklas",
        "Development": "Plėtojimas",
        "Games": "Žaidimai",
        "Graphics": "Grafika",
        "Internet": "Internetas",
        "Money": "Pinigai",
        "Multimedia": "Multimedija",
        "Navigation": "Navigacija",
        "Phone & SMS": "Skambučiai ir SMS",
        "Reading": "Skaitymas",
        "Science & Education": "Mokslas ir švietimas",
        "Security": "Saugumas",
        "Sports & Health": "Sportas ir sveikata",
        "System": "Sistema",
        "Theming": "Apipavidalinimas",
        "Time": "Laikas",
        "Writing": "Rašymas",
        "show_all_packages": "Rodyti visus %d paketus"
    },
    "index": {
        "download_fdroid": "Parsisiųsti F-Droid",
        "gpg_signature": "PGP parašas",
        "introduction": "F-Droid - tai Android platformai skirtas įdiegiamas FOSS (nemokamos ir atvirojo kodo programinės įrangos) programėlių katalogas. Klientas leidžia lengvai naršyti, diegti ir sekti atnaujinimus savo įrenginyje.",
        "screenshot": "Android skirtos programėlės F-Droid ekrano nuotrauka",
        "title": "Kas yra F-Droid?"
    },
    "mirrors": {
        "cn": "Žemyninė Kinijos",
        "de": "Vokietija",
        "indiana": "Indiana, JAV",
        "se": "Švedija",
        "tw": "Taivanas",
        "ua": "Ukraina"
    },
    "navigation": {
        "about": "Apie",
        "apps": "Programėlės",
        "contribute": "Prisidėti",
        "documentation": "Dokumentacija",
        "edit_on_gitlab": "Redaguoti GitLab",
        "forum": "Forumas",
        "issues": "Problemos",
        "news": "Naujienos",
        "translate_on_weblate": "Išversti naudojantis Weblate"
    },
    "news": {
        "by": "pateikė",
        "newer_posts": "← Naujesni",
        "older_posts": "Senesni →",
        "posted_on": "Paskelbta {{ post_date }}"
    },
    "package": {
        "added_on": "Pridėta {{ package_added_date }}",
        "anti_features": "Anti-ypatybės",
        "anti_features_warning": "Šioje programėlėje yra ypatybių, kurios jums gali nepatikti.",
        "author": "Autorius",
        "build_log": "Versijų žurnalas",
        "build_metadata": "Versijų metaduomenys",
        "changelog": "Pakeitimų žurnalas",
        "donate": "Aukoti",
        "download": "Parsisiųsti {{ file_extension }}",
        "flattr": "Flattr",
        "gpg_signature": "PGP parašas",
        "issue_tracker": "Problemų seklys",
        "liberapay": "Liberapay",
        "license": "Licencija",
        "minimum_android_version": "Šiai versijai reikalinga Android {{ android_version }} arba naujesnė versija.",
        "new_in_version": "Nauja versijoje {{ latest_version }}",
        "opencollective": "Open Collective",
        "package_icon_alt": "paketo piktograma",
        "package_screenshot_alt": "programėlės ekrano nuotrauka",
        "packages": "Paketai",
        "permissions": "Leidimai",
        "signed_by_developer": "Jį sukūrė ir pasirašė pradinis kūrėjas.",
        "signed_by_fdroid": "Sukurta ir pasirašyta F-Droid ir garantuojama, kad atitinka <a href=\"{{ source_code_url }}\">šio šaltinio kodą (tarball)</a>.",
        "source_code": "Pirminis kodas",
        "suggest_downloading_via_fdroid": "Nors, kad galėtumėte rinktis, toliau pateikiami APK atsisiuntimai, turėtumėte žinoti, kad diegdami tokiu būdu negausite pranešimų apie naujinimus ir tai yra mažiau saugus atsisiuntimo būdas. Rekomenduojame įsidiegti F-Droid klientą ir naudoti jį.",
        "suggested": "siūloma",
        "translation": "Vertimas",
        "version_info": "<b>Versija {{ package_version }}</b> ({{ package_version_code }})",
        "versions": "Versijos",
        "website": "Internetinė svetainė"
    },
    "permissions": {
        "permdesc_acceptHandovers": "Programėlei leidžiama tęsti skambutį, kuris buvo pradėtas naudojant kitą programėlę.",
        "permdesc_accessBackgroundLocation": "Ši programėlė gali bet kada pasiekti vietovę, net kai programėlė nenaudojama.",
        "permdesc_accessCoarseLocation": "Ši programėlė gali gauti apytikslius jūsų vietovės duomenis iš vietovės paslaugų, kai programėlė naudojama. Kad programėlė galėtų gauti vietovės duomenis, vietovės paslaugos turi būti įjungtos įrenginyje.",
        "permdesc_accessDrmCertificates": "Programėlei leidžiama pasiekti ir naudoti DRM sertifikatus. Neturėtų prireikti naudojant įprastas programėles.",
        "permdesc_accessFineLocation": "Ši programėlė gali gauti tikslius jūsų vietovės duomenis iš vietovės paslaugų, kai programėlė naudojama. Kad programėlė galėtų gauti vietovės duomenis, vietovės paslaugos turi būti įjungtos įrenginyje. Dėl to gali padidėti akumuliatoriaus energijos vartojimas.",
        "permdesc_accessImsCallService": "Programėlei leidžiama naudoti IMS paslaugą, kad būtų galima atlikti skambučius be jūsų įsikišimo.",
        "permdesc_accessLocationExtraCommands": "Programėlei leidžiama pasiekti papildomas vietovės nustatymo paslaugų teikėjų komandas. Dėl to programėlė gali trukdyti veikti GPS ar kitiems vietovės nustatymo šaltiniams.",
        "permdesc_accessNetworkConditions": "Leidžiama programėlei vykdyti tinklo sąlygų stebėjimą. To niekada neturėtų prireikti naudojant įprastas programėles.",
        "permdesc_accessNetworkState": "Leidžiama programėlei peržiūrėti informaciją apie tinklo ryšius, pvz., kurie tinklai pasiekiami ir prijungti.",
        "permdesc_accessNotifications": "Programėlei leidžiama gauti, patikrinti ir išvalyti pranešimus, įskaitant pranešimus, kuriuos paskelbė kitos programėlės.",
        "permdesc_accessWifiState": "Leidžiama programėlei peržiūrėti informaciją apie „Wi-Fi“ ryšio tinklus, pvz., ar įgalintas „Wi-Fi“, ir prijungtų „Wi-Fi“ įrenginių pavadinimus.",
        "permdesc_accessWimaxState": "Leidžiama programėlei nustatyti, ar įgalintas „WiMAX“, ir informaciją apie visus prijungtus tinklus.",
        "permdesc_access_notification_policy": "Leidžiama programėlei skaityti ir rašyti „Do Not Disturb“ konfigūraciją.",
        "permdesc_activityRecognition": "Ši programėlė gali atpažinti jūsų fizinę veiklą.",
        "permdesc_addVoicemail": "Leidžia programėlei pridėti pranešimų prie jūsų balso pašto gautųjų.",
        "permdesc_answerPhoneCalls": "Programėlei leidžiama atsakyti į gaunamąjį telefono skambutį.",
        "permdesc_audioWrite": "Programėlei leidžiama keisti muzikos kolekciją.",
        "permdesc_backgroundCamera": "Ši programėlė gali bet kada fotografuoti ir įrašyti vaizdo įrašus naudodama kamerą.",
        "permdesc_bindCarrierMessagingService": "Savininkui leidžiama susisaistyti su aukščiausio lygio operatoriaus susirašinėjimo paslaugos sąsaja. Įprastoms programoms to neturėtų prireikti.",
        "permdesc_bindCarrierServices": "Savininkui leidžiama susisaistyti su operatoriaus paslaugomis. To niekada neturėtų prireikti naudojant įprastas programėles.",
        "permdesc_bindCellBroadcastService": "Programėlei leidžiama susaistyti transliacijos mobiliuoju modulį, kad būtų galima persiųsti mobiliuoju transliuojamus pranešimus, kai jie gaunami. Transliacijos mobiliuoju įspėjimai pristatomi kai kuriose vietovėse, kad būtų galima įspėti apie kritines situacijas. Kai gaunamas mobiliuoju transliuojamas pranešimas apie kritinę situaciją, kenkėjiškos programėlės gali trukdyti įrenginiui veikti ar jį naudoti.",
        "permdesc_bindConditionProviderService": "Turėtojui leidžiama susaistyti programą su sąlygos teikėjo paslaugos aukščiausio lygio sąsaja. Įprastoms programoms to niekada neturėtų prireikti.",
        "permdesc_bindDreamService": "Savininkui leidžiama susisaistyti su mėgstamos paslaugos aukščiausio lygio sąsaja. Įprastoms programoms to neturėtų prireikti.",
        "permdesc_bindNotificationListenerService": "Turėtojui leidžiama susisaistyti su pranešimų skaitymo priemonės paslaugos aukščiausio lygio sąsaja. Įprastoms programėlėms to neturėtų prireikti.",
        "permdesc_bind_connection_service": "Programėlei leidžiama sąveikauti su telefonijos paslaugomis skambučiams atlikti / gauti.",
        "permdesc_bind_incall_service": "Programėlei leidžiama valdyti, kada ir kaip naudotojai matys gaunamojo skambučio ekraną.",
        "permdesc_bluetooth": "Leidžiama programėlei peržiūrėti „Bluetooth“ konfigūraciją įrenginyje ir užmegzti bei priimti ryšius iš susietų įrenginių.",
        "permdesc_bluetoothAdmin": "Leidžiama programėlei konfigūruoti vietinį „Bluetooth“ įrenginį ir atrasti nuotolinius įrenginius bei su jais susieti.",
        "permdesc_bluetooth_advertise": "Programėlei leidžiama viešintis netoliese esančiuose „Bluetooth“ įrenginiuose",
        "permdesc_bluetooth_connect": "Leidžiama programėlei prisijungti prie susietų „Bluetooth“ įrenginių",
        "permdesc_bluetooth_scan": "Leidžiama programėlei aptikti ir susieti „Bluetooth“ įrenginius netoliese",
        "permdesc_bodySensors": "Programėlei leidžiama pasiekti duomenis, gautus iš jutiklių, stebinčių fizinę būseną, pvz., širdies ritmą.",
        "permdesc_broadcastSticky": "Leidžiama programėlei siųsti užsifiksuojančias transliacijas, kurios išlieka pasibaigus transliacijai. Per dažnas jų naudojimas gali sulėtinti įrenginio veikimą ar padaryti jį nestabilų verčiant naudoti per daug atminties.",
        "permdesc_callCompanionApp": "Programėlei leidžiama matyti ir valdyti vykstančius skambučius įrenginyje. Tai apima tokią informaciją kaip skambučių telefono numeriai ir skambučių būsena.",
        "permdesc_callPhone": "Leidžiama programėlei skambinti telefonų numeriais be jūsų įsikišimo. Dėl to gali atsirasti nenumatytų apmokestinimų ar skambučių. Atminkite, kad programėlei neleidžiama skambinti pagalbos telefonų numeriais. Kenkėjiškos programėlės gali skambinti be jūsų patvirtinimo, o dėl to jums gali būti taikomi mokesčiai.",
        "permdesc_camera": "Ši programėlė gali fotografuoti ir įrašyti vaizdo įrašų naudodama fotoaparatą, kol programėlė naudojama.",
        "permdesc_cameraOpenCloseListener": "Ši programėlė gali sulaukti atgalinio skambinimo, kai atidaromas ar uždaromas (kurios nors programėlės) bet koks kameros įrenginys.",
        "permdesc_changeNetworkState": "Leidžiama programėlei keisti tinklo ryšio būseną.",
        "permdesc_changeTetherState": "Leidžiama programėlei keisti susieto tinklo ryšio būseną.",
        "permdesc_changeWifiMulticastState": "Leidžiama programėlei gauti paketus, siunčiamus į visus prie „Wi-Fi“ ryšio tinklo prijungtus įrenginius (ne tik į jūsų įrenginį), naudojančius daugiaadresio perdavimo adresus. Ji naudoja daugiau energijos nei ne daugiaadresio perdavimo režimas.",
        "permdesc_changeWifiState": "Leidžiama programėlei prisijungti prie „Wi-Fi“ ryšio prieigos taškų ir nuo jų atsijungti bei keisti įrenginio „Wi-Fi“ ryšio tinklų konfigūraciją.",
        "permdesc_changeWimaxState": "Leidžia programėlei prijungti įrenginį prie „WiMAX“ ryšio tinklų ir nuo jų atjungti.",
        "permdesc_connection_manager": "Programėlei leidžiama tvarkyti telekomunikacijų ryšius.",
        "permdesc_control_incall_experience": "Programėlei leidžiama teikti naudotojui paslaugas vykstant skambučiui.",
        "permdesc_createNetworkSockets": "Leidžiama programėlei kurti tinklo programines jungtis ir naudoti tinkintus tinklo protokolus. Naršyklė ir kitos programos teikia priemones siųsti duomenis į internetą, todėl norint siųsti duomenis į internetą šis leidimas nebūtinas.",
        "permdesc_disableKeyguard": "Leidžiama programėlei neleisti klavišo užrakto ir visos susijusios slaptažodžio apsaugos. Pvz., įrenginys neleidžia klavišo užrakto priimant gaunamąjį skambutį ir pakartotinai jį įgalina, kai skambutis baigiamas.",
        "permdesc_enableCarMode": "Leidžiama programėlei įgalinti automobilio režimą.",
        "permdesc_exemptFromAudioRecordRestrictions": "Netaikyti programėlei garso įrašymo apribojimų.",
        "permdesc_expandStatusBar": "Leidžiama programėlei išskleisti arba sutraukti būsenos juostą.",
        "permdesc_foregroundService": "Programėlei leidžiama naudoti priekiniame plane veikiančias paslaugas.",
        "permdesc_fullScreenIntent": "Leidžiama programėlei pateikti pranešimus kaip veiklą viso ekrano režimu užrakintame įrenginyje",
        "permdesc_getAccounts": "Leidžiama programėlei gauti įrenginio žinomų paskyrų sąrašą. Gali būti įtrauktos visos paskyros, sukurtos įdiegtomis programėlėmis.",
        "permdesc_getPackageSize": "Leidžiama programėlei nuskaityti kodą, duomenis ir talpykloje saugoti dydžius",
        "permdesc_getTasks": "Leidžiama programėlei nuskaityti informaciją apie šiuo ir pastaruoju metu vykdomas užduotis. Taip programėlė gali atrasti informacijos, kokios programėlės naudojamos įrenginyje.",
        "permdesc_handoverStatus": "Programėlei leidžiama gauti informaciją apie dabartinius „Android“ perdavimo funkcijos perkėlimus",
        "permdesc_highSamplingRateSensors": "Programėlei leidžiama skaitmeninti jutiklių duomenis didesniu nei 200 Hz dažniu",
        "permdesc_imagesWrite": "Programėlei leidžiama keisti nuotraukų kolekciją.",
        "permdesc_install_shortcut": "Programėlei leidžiama pridėti sparčiuosius klavišus prie pagrindinio ekrano be naudotojo įsikišimo.",
        "permdesc_invokeCarrierSetup": "Turėtojui leidžiama iškviesti operatoriaus pateiktą konfigūravimo programą. Įprastoms programoms to neturėtų prireikti.",
        "permdesc_killBackgroundProcesses": "Leidžiama programėlei baigti kitų programų fone vykdomus procesus. Dėl to gali būti sustabdytos kitos programėlės.",
        "permdesc_manageFace": "Programėlei leidžiama aktyvinti metodus, norint pridėti ir ištrinti naudojamus veidų šablonus.",
        "permdesc_manageFingerprint": "Leidžiama programėlei aktyvinti metodus, norint pridėti ir ištrinti naudojamus kontrolinių kodų šablonus.",
        "permdesc_manageNetworkPolicy": "Leidžiama programėlei valdyti tinklo politiką ir apibrėžti konkrečios programėlės taisykles.",
        "permdesc_manageOngoingCalls": "Programėlei leidžiama peržiūrėti išsamią informaciją apie vykstančius skambučius įrenginyje ir valdyti šiuos skambučius.",
        "permdesc_manageOwnCalls": "Programėlei leidžiama nukreipti jos skambučius per sistemą siekiant pagerinti skambinimo paslaugas.",
        "permdesc_manageProfileAndDeviceOwners": "Leisti programėlei nustatyti profilio savininkus ir įrenginio savininką.",
        "permdesc_mediaLocation": "Programėlei leidžiama skaityti vietoves iš medijos kolekcijos.",
        "permdesc_modifyAudioSettings": "Leidžiama programėlei keisti visuotinius garso nustatymus, pvz., garsumą ir tai, kuris garsiakalbis naudojamas išvesčiai.",
        "permdesc_modifyNetworkAccounting": "Leidžiama programėlei keisti, kaip tinklas naudojamas, palyginti su programomis. Neskirta naudoti įprastoms programoms.",
        "permdesc_nfc": "Leidžiama programėlei perduoti artimojo lauko ryšių technologijos (ALR) žymas, korteles ir skaitymo programėles.",
        "permdesc_persistentActivity": "Leidžiama programėlei savo dalis įrašyti į atmintį. Dėl to gali būti apribota kitomis programėlėmis pasiekiama atmintis ir sulėtėti įrenginio veikimas.",
        "permdesc_preferredPaymentInfo": "Programėlei leidžiama gauti pageidaujamą ARL mokamos paslaugos informaciją, pvz., užregistruotą pagalbą ir maršrutų tikslus.",
        "permdesc_processOutgoingCalls": "Leidžiama programėlei peržiūrėti renkamą numerį siunčiamojo skambučio metu suteikiant galimybę peradresuoti skambutį kitu numeriu arba visiškai nutraukti skambutį.",
        "permdesc_queryAllPackages": "Programėlei leidžiama peržiūrėti visus įdiegtus paketus.",
        "permdesc_readCalendar": "Ši programėlė gali nuskaityti visus jūsų įrenginyje saugomus kalendoriaus įvykius ir bendrinti arba išsaugoti kalendoriaus duomenis.",
        "permdesc_readCallLog": "Ši programėlė gali nuskaityti skambučių istoriją.",
        "permdesc_readCellBroadcasts": "Programėlei leidžiama skaityti mobiliuoju transliuojamus pranešimus, gaunamus jūsų įrenginyje. Mobiliuoju transliuojami įspėjimai pristatomi kai kuriose vietose, kad įspėtų apie kritines situacijas. Kai gaunamas mobiliuoju transliuojamas pranešimas apie kritinę situaciją, kenkėjiškos programėlės gali trukdyti įrenginiui veikti ar jį naudoti.",
        "permdesc_readContacts": "Programėlei leidžiama skaityti duomenis apie jūsų įrenginyje saugomus kontaktus. Programėlės taip pat galės pasiekti įrenginyje esančias paskyras, kuriose buvo sukurta kontaktų. Gali būti įtrauktos paskyros, kurias sukūrė jūsų įdiegtos programėlės. Šis leidimas suteikia teisę programėlėms saugoti kontaktinius duomenis, o kenkėjiškos programėlės gali bendrinti kontaktinius duomenis be jūsų žinios.",
        "permdesc_readHistoryBookmarks": "Leidžiama programėlei skaityti visų URL, kuriuose buvo lankytasi naršyklėje, ir visų naršyklės žymių istoriją. Pastaba: šis leidimas nesuteikiamas trečiosios šalies naršyklėms ar kitoms programėlėms, kuriomis galima naršyti žiniatinklį.",
        "permdesc_readInstallSessions": "Leidžiama programėlei skaityti diegimo seansus. Leidžiama peržiūrėti išsamią aktyvių paketų diegimo informaciją.",
        "permdesc_readNetworkUsageHistory": "Leidžiama programėlei skaityti konkrečių tinklų ir programų tinklo naudojimo istoriją.",
        "permdesc_readPhoneNumbers": "Programėlei leidžiama pasiekti įrenginio telefonų numerius.",
        "permdesc_readPhoneState": "Leidžiama programėlei pasiekti telefono funkcijas įrenginyje. Šis leidimas suteikia teisę programėlei nustatyti telefono numerį ir įrenginio ID, tai, ar skambutis aktyvus, ir skambučiu prijungtą nuotolinį numerį.",
        "permdesc_readSms": "Ši programėlė gali nuskaityti visus jūsų įrenginyje saugomus SMS (teksto) pranešimus.",
        "permdesc_readSyncSettings": "Leidžiama programėlei skaityti ir sinchronizuoti paskyros nustatymus. Pvz., taip gali būti nustatoma, ar su paskyra sinchronizuota Žmonių programėlė.",
        "permdesc_readSyncStats": "Leidžiama programėlei skaityti sinchronizuotą paskyros statistiką, įskaitant sinchronizuotų įvykių istoriją ir informaciją, kiek duomenų sinchronizuota.",
        "permdesc_receiveBootCompleted": "Leidžiama programėlei įsijungti, kai baigsis sistemos įkėlimas iš naujo. Dėl to įrenginio paleidimas gali trukti ilgiau ir programėlė gali sulėtinti įrenginį, nes ji veiks visada.",
        "permdesc_receiveMms": "Leidžiama programėlei gauti ir apdoroti MMS pranešimus. Tai reiškia, kad programėlė gali stebėti ir ištrinti į jūsų įrenginį siunčiamus pranešimus jums jų neparodžiusi.",
        "permdesc_receiveSms": "Leidžiama programėlei gauti ir apdoroti SMS pranešimus. Tai reiškia, kad programėlė gali stebėti ir ištrinti į jūsų įrenginį siunčiamus pranešimus jums jų neparodžiusi.",
        "permdesc_receiveWapPush": "Leidžiama programėlei gauti ir apdoroti WAP pranešimus. Šis leidimas apima galimybę stebėti ar ištrinti jums siunčiamus pranešimus jums jų neparodžius.",
        "permdesc_recordAudio": "Ši programėlė gali įrašyti garsą naudodama mikrofoną, kol programėlė naudojama.",
        "permdesc_recordBackgroundAudio": "Ši programėlė gali bet kada įrašyti garsą naudodama mikrofoną.",
        "permdesc_register_call_provider": "Programėlei leidžiama registruoti naujus telekomunikacijų ryšius.",
        "permdesc_register_sim_subscription": "Programėlei leidžiama registruoti naujus telekomunikacijų SIM ryšius.",
        "permdesc_removeDrmCertificates": "Programėlei leidžiama pašalinti DRM sertifikatus. Neturėtų prireikti naudojant įprastas programėles.",
        "permdesc_reorderTasks": "Leidžiama programėlei perkelti užduotis į priekinį planą ir foną. Programėlė gali tai daryti be jūsų įsikišimo.",
        "permdesc_requestDeletePackages": "Programėlei leidžiama pateikti užklausą dėl paketų ištrynimo.",
        "permdesc_requestIgnoreBatteryOptimizations": "Programėlei leidžiama prašyti leidimo nepaisyti tai programėlei skirto akumuliatoriaus optimizavimo nustatymų.",
        "permdesc_requestInstallPackages": "Programėlei leidžiama pateikti užklausą dėl paketų diegimo.",
        "permdesc_requestPasswordComplexity": "Leidžiama programėlei sužinoti ekrano užrakto sudėtingumo lygį (aukštas, vidutinis, žemas arba nėra), nurodantį galimą ekrano užrakto trukmės diapazoną ir tipą. Be to, programėlė gali pasiūlyti naudotojams atnaujinti ekrano užraktą į tam tikrą lygį, bet naudotojai gali laisvai nepaisyti ir išeiti. Atminkite, kad ekrano užraktas nesaugomas kaip nešifruotas tekstas, todėl programėlė nežino tikslaus slaptažodžio.",
        "permdesc_route_media_output": "Leidžiama programėlei nukreipti medijos išvestį į kitus išorinius įrenginius.",
        "permdesc_runInBackground": "Ši programėlė gali būti vykdoma fone. Dėl to akumuliatorius gali būti greičiau išeikvojamas.",
        "permdesc_sdcardRead": "Pr. leidž. sk. bendr. atm. t.",
        "permdesc_sdcardWrite": "Pr. leidž. raš. bendr. atm. t.",
        "permdesc_sendSms": "Leidžiama programėlei siųsti SMS pranešimus. Dėl to gali atsirasti nenumatytų apmokestinimų. Kenkėjiškos programėlės gali siųsti mokamus pranešimus be jūsų patvirtinimo.",
        "permdesc_setAlarm": "Leidžiama programėlei nustatyti signalą įdiegtoje žadintuvo programėlėje. Kai kuriose žadintuvo programėlėse ši funkcija gali nebūti nevykdoma.",
        "permdesc_setInputCalibration": "Leidžiama programėlei keisti jutiklinio ekrano kalibravimo parametrus. Neturėtų prireikti naudojant įprastas programėles.",
        "permdesc_setTimeZone": "Leidžiama programėlei keisti įrenginio laiko juostą.",
        "permdesc_setWallpaper": "Leidžiama programėlei nustatyti sistemos darbalaukio foną.",
        "permdesc_setWallpaperHints": "Leidžiama programėlei nustatyti sistemos darbalaukio fono dydžio užuominas.",
        "permdesc_sim_communication": "Programėlei leidžiama siųsti komandas į SIM kortelę. Tai labai pavojinga.",
        "permdesc_startViewPermissionUsage": "Leidžia savininkui pradėti naudoti programos leidimą. Įprastoms programoms to neturėtų prireikti.",
        "permdesc_statusBar": "Leidžiama programėlei neleisti būsenos juostos arba pridėti ir pašalinti sistemos piktogramas.",
        "permdesc_statusBarService": "Leidžiama programėlei būti būsenos juosta.",
        "permdesc_subscribedFeedsRead": "Leidžiama programėlei gauti išsamios informacijos apie šiuo metu sinchronizuojamus sklaidos kanalus.",
        "permdesc_systemAlertWindow": "Ši programėlė gali būti rodoma virš kitų programėlių arba kitų ekrano sričių. Tai gali trukdyti įprastai naudoti programėles ir pakeisti kitų programėlių rodymo būdą.",
        "permdesc_systemCamera": "Ši privilegijuota arba sistemos programėlė gali daryti nuotraukas ir įrašyti vaizdo įrašus naudodama sistemos kamerą bet kuriuo metu. Programėlė taip pat būtinas leidimas „android.permission.CAMERA“",
        "permdesc_transmitIr": "Programėlei leidžiama naudoti įrenginio infraraudonųjų spindulių perdavimo įrenginį.",
        "permdesc_uninstall_shortcut": "Programėlei leidžiama pašalinti sparčiuosius klavišus iš pagrindinio ekrano be naudotojo įsikišimo.",
        "permdesc_useBiometric": "Leidžiama programėlei naudoti biometrinę aparatinę įrangą tapatybei nustatyti",
        "permdesc_useDataInBackground": "Ši programėlė gali naudoti duomenis fone. Dėl to gali būti sunaudojama daugiau duomenų.",
        "permdesc_useFaceAuthentication": "Programėlei leidžiama naudoti atrakinimo pagal veidą aparatinę įrangą tapatybei nustatyti",
        "permdesc_useFingerprint": "Leidžiama programėlei naudoti piršto antspaudo aparatinę įrangą tapatybei nustatyti",
        "permdesc_use_sip": "Leidžiama programėlei skambinti ir priimti SIP skambučius.",
        "permdesc_uwb_ranging": "Leisti programėlei nustatyti apytikslę netoliese esančių itin plataus dažnio juostos įrenginių poziciją",
        "permdesc_vibrate": "Leidžiama programėlei valdyti vibravimą.",
        "permdesc_vibrator_state": "Programėlei leidžiama pasiekti vibratoriaus būseną.",
        "permdesc_videoWrite": "Programėlei leidžiama keisti vaizdo įrašų kolekciją.",
        "permdesc_wakeLock": "Programėlei leidžiama palikti įrenginio ekraną įjungtą.",
        "permdesc_writeCalendar": "Ši programėlė gali pridėti, pašalinti arba pakeisti įrenginyje esančius kalendoriaus įvykius. Ši programėlė gali siųsti pranešimus, kurie gali atrodyti atsiųsti kalendoriaus savininkų, arba pakeisti įvykius nepranešusi jų savininkams.",
        "permdesc_writeCallLog": "Programėlei leidžiama skaityti įrenginio skambučių žurnalą, įskaitant duomenis apie gaunamuosius ir siunčiamuosius skambučius. Kenkėjiškos programėlės tai gali naudoti, kad ištrintų ar keistų jūsų skambučių žurnalą.",
        "permdesc_writeContacts": "Programėlei leidžiama keisti duomenis apie įrenginyje saugomus kontaktus. Su šiuo leidimu programėlės gali ištrinti kontaktinius duomenis.",
        "permdesc_writeGeolocationPermissions": "Leidžiama programėlei keisti naršyklės geografinės vietos leidimus. Kenkėjiškos programėlės gali tai naudoti, kad leistų siųsti vietos informaciją abejotinoms svetainėms.",
        "permdesc_writeHistoryBookmarks": "Leidžiama programėlei keisti naršyklės istoriją ar žymes, išsaugotas įrenginyje. Dėl to programėlei gali būti leidžiama ištrinti ar keisti naršyklės duomenis. Pastaba: šis leidimas nesuteikiamas trečiosios šalies naršyklėms ar kitoms programėlėms, kuriomis galima naršyti žiniatinklį.",
        "permdesc_writeSettings": "Leidžiama programėlei keisti sistemos nustatymų duomenis. Kenkėjiškos programėlės gali sugadinti jūsų sistemos konfigūraciją.",
        "permdesc_writeSyncSettings": "Leidžiama programėlei keisti sinchronizuotus paskyros nustatymus. Pvz., tai gali būti naudojama norint įgalinti Žmonių programėlės sinchronizavimą su paskyra.",
        "permgroupbackgroundrequest_location": "Leisti programėlei prašyti vietovės fone.",
        "permgroupbackgroundrequestdetail_location": "Šiuo metu programėlė gali pasiekti buvimo vietą tik tada, kai naudojate programėlę",
        "permgroupdesc_activityRecognition": "pasiekti jūsų fizinę veiklą",
        "permgroupdesc_calendar": "pasiekti kalendorių",
        "permgroupdesc_calllog": "skaityti ir rašyti telefono skambučių žurnalą",
        "permgroupdesc_camera": "fotografuoti ir filmuoti",
        "permgroupdesc_contacts": "pasiekti kontaktus",
        "permgroupdesc_location": "pasiekti įrenginio vietovės informaciją",
        "permgroupdesc_microphone": "įrašyti garso įrašą",
        "permgroupdesc_nearby_devices": "aptikti netoliese esančius įrenginius ir prisijungti prie jų",
        "permgroupdesc_phone": "skambinti ir tvarkyti telefonų skambučius",
        "permgroupdesc_sensors": "pasiekti jutiklių duomenis apie gyvybinius ženklus",
        "permgroupdesc_sms": "siųsti ir peržiūrėti SMS pranešimus",
        "permgroupdesc_storage": "pasiekti nuotraukas, mediją ir failus įrenginyje",
        "permgrouplab_activityRecognition": "Fizinė veikla",
        "permgrouplab_calendar": "Kalendorius",
        "permgrouplab_calllog": "Skambučių žurnalai",
        "permgrouplab_camera": "Kamera",
        "permgrouplab_contacts": "Kontaktai",
        "permgrouplab_location": "Vietovė",
        "permgrouplab_microphone": "Mikrofonas",
        "permgrouplab_nearby_devices": "Įrenginiai netoliese",
        "permgrouplab_phone": "Telefonas",
        "permgrouplab_sensors": "Kūno jutikliai",
        "permgrouplab_sms": "SMS",
        "permgrouplab_storage": "Failai ir medija",
        "permgrouprequest_activityRecognition": "Leisti programėlei sekti jūsų veiklą.",
        "permgrouprequest_calendar": "Leisti <b></b>",
        "permgrouprequest_calllog": "Leisti <b></b>",
        "permgrouprequest_camera": "Leisti <b></b>",
        "permgrouprequest_contacts": "Leisti <b></b>",
        "permgrouprequest_location": "Leisti <b></b>",
        "permgrouprequest_microphone": "Leisti <b></b>",
        "permgrouprequest_phone": "Leisti <b></b>",
        "permgrouprequest_sensors": "Leisti <b></b>",
        "permgrouprequest_sms": "Leisti <b></b>",
        "permgrouprequest_storage": "Leisti <b></b>",
        "permgrouprequestdetail_location": "Programėlė turės prieigą prie vietovės tik tuo metu, kai naudojate ją",
        "permission_request_notification_for_app_with_subtitle": "Leidimo paprašė",
        "permlab_acceptHandover": "tęsti skambutį naudojant kitą programą",
        "permlab_accessBackgroundLocation": "pasiekti vietovę fone",
        "permlab_accessCoarseLocation": "pasiekti apytikslę vietovę, tik kai programėlė veikia priekiniame plane",
        "permlab_accessDrmCertificates": "gali pasiekti DRM sertifikatus",
        "permlab_accessFineLocation": "pasiekti tikslią vietovę, tik kai programėlė veikia priekiniame plane",
        "permlab_accessImsCallService": "pasiekti IMS skambučių paslaugą",
        "permlab_accessLocationExtraCommands": "pasiekti papildomas vietos teikimo įrankio komandas",
        "permlab_accessNetworkConditions": "vykdyti tinklo sąlygų stebėjimą",
        "permlab_accessNetworkState": "žiūrėti tinklo ryšius",
        "permlab_accessNotifications": "pasiekti pranešimus",
        "permlab_accessWifiState": "žiūrėti „Wi-Fi“ ryšius",
        "permlab_accessWimaxState": "prisijungti prie WiMAX ir atsijungti nuo jo",
        "permlab_access_notification_policy": "pasiekti „Do Not Disturb“",
        "permlab_activityRecognition": "atpažinti fizinę veiklą",
        "permlab_addVoicemail": "pridėti balso pašto pranešimų",
        "permlab_answerPhoneCalls": "atsakyti į telefonų skambučius",
        "permlab_audioWrite": "keisti muzikos kolekciją",
        "permlab_backgroundCamera": "fotografuoti ir įrašyti vaizdo įrašų fone",
        "permlab_bindCarrierMessagingService": "susaistyti su operatoriaus susirašinėjimo paslauga",
        "permlab_bindCarrierServices": "susaistyti su operatoriaus paslaugomis",
        "permlab_bindCellBroadcastService": "Persiųsti mobiliuoju transliuojamas žinutes",
        "permlab_bindConditionProviderService": "susaistyti su sąlygos teikėjo paslauga",
        "permlab_bindDreamService": "susisaistyti su mėgstama paslauga",
        "permlab_bindNotificationListenerService": "susisaistyti su pranešimų skaitymo priemonės paslauga",
        "permlab_bind_connection_service": "sąveikauti su telefonijos paslaugomis",
        "permlab_bind_incall_service": "sąveika su gaunamojo skambučio ekranu",
        "permlab_bluetooth": "susieti su „Bluetooth“ įrenginiais",
        "permlab_bluetoothAdmin": "pasiekti „Bluetooth“ nustatymus",
        "permlab_bluetooth_advertise": "viešintis netoliese esančiuose „Bluetooth“ įrenginiuose",
        "permlab_bluetooth_connect": "prisijungti prie susietų „Bluetooth“ įrenginių",
        "permlab_bluetooth_scan": "aptikti ir susieti netoliese esančius „Bluetooth“ įrenginius",
        "permlab_bodySensors": "pas. k. jut. (pvz., pul. dažn. st. įr.)",
        "permlab_broadcastSticky": "siųsti pritraukiantį perdavimą",
        "permlab_callCompanionApp": "matyti ir valdyti skambučius per sistemą.",
        "permlab_callPhone": "skambinti tiesiogiai telefono numeriais",
        "permlab_camera": "fotografuoti ir filmuoti",
        "permlab_cameraOpenCloseListener": "Leisti programėlei ar paslaugai sulaukti atgalinio skambinimo, kai atidaroma ar uždaroma kamera.",
        "permlab_changeNetworkState": "keisti tinklo jungiamumą",
        "permlab_changeTetherState": "keisti susietą jungiamumą",
        "permlab_changeWifiMulticastState": "leisti „Wi-Fi“ daugiaadresio perdavimo priėmimą",
        "permlab_changeWifiState": "prijungti prie „Wi-Fi“ ir atjungti nuo jo",
        "permlab_changeWimaxState": "keisti „WiMAX“ būseną",
        "permlab_connection_manager": "tvarkyti telekomunikacijų ryšius",
        "permlab_control_incall_experience": "naudotojui teikti paslaugas vykstant skambučiui",
        "permlab_createNetworkSockets": "turėti visateisę tinklo prieigą",
        "permlab_disableKeyguard": "išjungti ekrano užraktą",
        "permlab_enableCarMode": "įgalinti automobilio režimą",
        "permlab_exemptFromAudioRecordRestrictions": "netaikyti garso įrašymo apribojimų",
        "permlab_expandStatusBar": "išskleisti / sutraukti būsenos juostą",
        "permlab_foregroundService": "vykdyti priekiniame plane veikiančią paslaugą",
        "permlab_fullScreenIntent": "pateikti pranešimus kaip veiklą viso ekrano režimu užrakintame įrenginyje",
        "permlab_getAccounts": "rasti paskyras įrenginyje",
        "permlab_getPackageSize": "matuoti programos atmintinės vietą",
        "permlab_getTasks": "nuskaityti veikiančias programėles",
        "permlab_handoverStatus": "gauti „Android“ perdavimo funkcijos perkėlimo būseną",
        "permlab_highSamplingRateSensors": "pasiekti jutiklių duomenis dideliu skaitmeninimo dažniu",
        "permlab_imagesWrite": "keisti nuotraukų kolekciją",
        "permlab_install_shortcut": "įdiegti sparčiuosius klavišus",
        "permlab_invokeCarrierSetup": "iškviesti operatoriaus pateiktą konfigūravimo programą",
        "permlab_killBackgroundProcesses": "uždaryti kitas programėles",
        "permlab_manageFace": "tvarkyti Atrakinimo pagal veidą aparatinę įrangą",
        "permlab_manageFingerprint": "tvarkyti piršto antspaudo aparatinę įrangą",
        "permlab_manageNetworkPolicy": "valdyti tinklo politiką",
        "permlab_manageOngoingCalls": "Tvarkyti vykstančius skambučius",
        "permlab_manageOwnCalls": "nukreipti skambučius per sistemą",
        "permlab_manageProfileAndDeviceOwners": "tvarkyti profilio ir įrenginio savininkus",
        "permlab_mediaLocation": "skaityti vietoves iš medijos kolekcijos",
        "permlab_modifyAudioSettings": "keisti garso nustatymus",
        "permlab_modifyNetworkAccounting": "keisti tinklo naudojimo apskaitą",
        "permlab_nfc": "valdyti artimo lauko perdavimą (angl. „Near Field Communication“)",
        "permlab_persistentActivity": "nustatyti, kad programėlė būtų visada vykdoma",
        "permlab_preferredPaymentInfo": "Pageidaujama ARL mokėjimo paslaugos informacija",
        "permlab_processOutgoingCalls": "peradresuoti išsiunčiamuosius skambučius",
        "permlab_queryAllPackages": "Teikti visų paketų užklausą",
        "permlab_readCalendar": "Skaityti kalendoriaus įvykius arba išsamią informaciją",
        "permlab_readCallLog": "skaityti skambučių žurnalą",
        "permlab_readCellBroadcasts": "skaityti mobiliuoju transliuojamus pranešimus",
        "permlab_readContacts": "skaityti kontaktus",
        "permlab_readHistoryBookmarks": "skaityti žiniatinklio žymes ir istoriją",
        "permlab_readInstallSessions": "skaityti diegimo sesijas",
        "permlab_readNetworkUsageHistory": "skaityti tinklo naudojimo istoriją",
        "permlab_readPhoneNumbers": "skaityti telefonų numerius",
        "permlab_readPhoneState": "skaityti įrenginio būseną ir tapatybę",
        "permlab_readSms": "skaityti teksto pranešimus (SMS arba MMS)",
        "permlab_readSyncSettings": "skaityti sinchronizavimo nustatymus",
        "permlab_readSyncStats": "skaityti sinchronizavimo statistiką",
        "permlab_receiveBootCompleted": "paleisti paleidimo metu",
        "permlab_receiveMms": "gauti teksto pranešimus (MMS)",
        "permlab_receiveSms": "gauti teksto pranešimus (SMS)",
        "permlab_receiveWapPush": "gauti teksto pranešimus (WAP)",
        "permlab_recordAudio": "įrašyti garsą",
        "permlab_recordBackgroundAudio": "įrašyti garsą fone",
        "permlab_register_call_provider": "registruoti naujus telekomunikacijų ryšius",
        "permlab_register_sim_subscription": "registruoti naujus telekomunikacijų SIM ryšius",
        "permlab_removeDrmCertificates": "pašalinti DRM sertifikatus",
        "permlab_reorderTasks": "pertvarkyti veikiančias programėles",
        "permlab_requestDeletePackages": "paketo ištrynimo užklausa",
        "permlab_requestIgnoreBatteryOptimizations": "prašyti nepaisyti akumuliatoriaus optimizavimo nustatymų",
        "permlab_requestInstallPackages": "pateikti užklausą dėl diegimo paketų",
        "permlab_requestPasswordComplexity": "pateikti ekrano užrakto sudėtingumo užklausą",
        "permlab_route_media_output": "nukreipti medijos išvestį",
        "permlab_runInBackground": "vykdyti fone",
        "permlab_sdcardRead": "skaityti bendr. atmint. turinį",
        "permlab_sdcardWrite": "keisti arba ištrinti bendrųjų duomenų saugyklos turinį",
        "permlab_sendSms": "siųsti ir peržiūrėti SMS pranešimus",
        "permlab_setAlarm": "nustatyti pavojaus signalą",
        "permlab_setInputCalibration": "keisti įvesties įrenginio kalibravimą",
        "permlab_setTimeZone": "nustatyti laiko zoną",
        "permlab_setWallpaper": "nustatyti darbalaukio foną",
        "permlab_setWallpaperHints": "keisti ekrano fono dydį",
        "permlab_sim_communication": "siųsti komandas į SIM kortelę",
        "permlab_startViewPermissionUsage": "pradėti peržiūrėti leidimo naudojimą",
        "permlab_statusBar": "išjungti ar keisti būsenos juostą",
        "permlab_statusBarService": "būti būsenos juosta",
        "permlab_subscribedFeedsRead": "skaityti prenumeruojamus tiekimus",
        "permlab_systemAlertWindow": "Ši programėlė gali būti rodoma virš kitų programėlių",
        "permlab_systemCamera": "Suteikti programėlei arba paslaugai prieigą prie sistemos kamerų, kad būtų galima daryti nuotraukas ir įrašyti vaizdo įrašus",
        "permlab_transmitIr": "perduoti duomenis infraraudonaisiais spinduliais",
        "permlab_uninstall_shortcut": "pašalinti sparčiuosius klavišus",
        "permlab_useBiometric": "naudoti biometrinę aparatinę įrangą",
        "permlab_useDataInBackground": "naudoti duomenis fone",
        "permlab_useFaceAuthentication": "naudoti Atrakinimo pagal veidą aparatinę įrangą",
        "permlab_useFingerprint": "naudoti piršto antspaudo aparatinę įrangą",
        "permlab_use_sip": "skambinti / priimti SIP skambučius",
        "permlab_uwb_ranging": "nustatyti apytikslę netoliese esančių itin plataus dažnio juostos įrenginių poziciją",
        "permlab_vibrate": "valdyti vibraciją",
        "permlab_videoWrite": "keisti vaizdo įrašų kolekciją",
        "permlab_wakeLock": "neleisti įrenginiui užmigti",
        "permlab_writeCalendar": "prideda arba keičia kalendoriaus įvykius ir siunčia el. laiškus svečiams be savininko žinios",
        "permlab_writeCallLog": "rašyti skambučių žurnalą",
        "permlab_writeContacts": "keisti kontaktus",
        "permlab_writeGeolocationPermissions": "keisti naršyklės geografinės vietos leidimus",
        "permlab_writeHistoryBookmarks": "rašyti žiniatinklio žymes ir istoriją",
        "permlab_writeSettings": "keisti sistemos nustatymus",
        "permlab_writeSyncSettings": "įjungti arba išjungti sinchronizavimą"
    },
    "sidebars": {
        "donate": {
            "bank_transfer_name": "Pavadinimas",
            "bitcoin_alt": "Paaukokite per Bitcoin",
            "credit_card": "Kredito kortele",
            "crypto": "Kriptovaliuta",
            "currency": "Valiuta",
            "flattr_alt": "Paaukoti per Flattr",
            "heading": "Aukoti",
            "hellotux": "👕 Marškinėliai 👕 iš",
            "hellotux_alt": "HELLOTUX",
            "hellotux_donation": "Už kiekvienus parduotus marškinėlius F-Droid gaus 3 €.",
            "liberapay_alt": "Paaukoti per Liberapay",
            "litecoin_alt": "Paaukoti per Litecoin",
            "more_options": "Daugiau pasirinkimų",
            "opencollective_alt": "Paaukokite mūsų kolektyvui",
            "paypal": "PayPal",
            "paypal_alt": "Paaukoti per PayPal",
            "powered_by_donations": "F-Droid veikia iš jūsų aukų!",
            "via_bank_transfer": "Bankinis pavedimas"
        },
        "lang": {
            "change": "Pakeisti"
        },
        "last_updated": {
            "heading": "Paskutinis atnaujinimas"
        },
        "latest_packages": {
            "heading": "Naujausios programėlės"
        },
        "news": {
            "heading": "Naujienos"
        },
        "search": {
            "heading": "Ieškoti programėlių",
            "noscript": "Reikia, kad būtų įjungtas JavaScript",
            "search": "Paieška"
        }
    }
}
